Score	Members
4.351265275265785E-6	RB1	CDKN2A	CDK4
4.351265275265785E-6	CDK4	CDKN2A	RB1
4.351265275265785E-6	CDKN2A	CDK4	RB1
7.993801736757222E-6	AGAP2	CDKN2A	RB1
2.0E-4	TP53	CDKN2A	MDM2
2.0E-4	MDM2	CDKN2A	TP53
4.0E-4	CDKN2B	CDK4
0.008402191630489162	ATRX	RB1	CDKN2A
0.0117	EGFR	TP53
0.10719290051377861	NF1	EGFR	TP53
0.1108	PDGFRB	EGFR	TP53	NF1
0.12446351931330472	CDKN2C	CDK4	CDKN2B	NF1
0.12466124661246612	ITGA10	EGFR	TP53	PDGFRB
0.16443298969072165	PTEN	PIK3CA	LAMB3	EGFR	NF1
0.17848605577689244	CAND1	RB1	CDKN2A
0.18029115341545351	MSL3	CDK4	CDKN2A
0.19365079365079366	STAG2	RB1	CDK4
0.2424003158310304	LAMB3	EGFR	NF1
0.2861230329041488	CDK6	CDK4	RB1	CDKN2C	TRPM2
0.2971098265895954	FOXJ2	CDKN2A	RB1
0.31	ADCY3	RB1	CDK4	CDKN2B
0.3611111111111111	FAF1	TP53	MDM2	CDKN2A
0.3921078921078921	PIK3CA	PTEN
0.39285714285714285	STIM1	EGFR	NF1
0.39285714285714285	EGR1	CDKN2A	MDM2
0.40540540540540543	LAMA2	EGFR	TP53
0.4146341463414634	SRPK1	RB1	CDKN2A
0.46153846153846156	NTN4	EGFR	TP53
0.4857142857142857	TRPM2	TP53	EGFR	NF1
0.4888888888888889	ARHGAP5	PTEN	PIK3CA
0.5	KDR	EGFR	TP53
0.5185185185185185	GRB2	TP53	EGFR
0.5628	MDM4	MDM2	NF1	TP53	HNF4A
0.5628	HNF4A	TP53	MDM2	MDM4	NF1
0.5698924731182796	AHR	CDKN2A	RB1	AGAP2
0.5704	PIK3C2B	TP53	MDM2	NF1
0.5869565217391305	DOCK2	PTEN	PIK3CA
0.625	FBXW7	RB1	CDKN2A
0.6285714285714286	EPHA10	PTEN	PIK3CA
0.65	CCND2	CDKN2A	TP53
0.6507666098807495	PDGFRA	NF1	EGFR	PDGFRB
0.6923076923076923	CSF2RB	PTEN	PIK3CA	EPHA10	ARHGAP5
0.7142857142857143	CREB1	CDKN2B	AGAP2	CDKN2C
0.7222222222222222	PAN3	TP53	MDM2	MDM4	HNF4A
0.7222222222222222	LZTR1	TP53	MDM2	MDM4	HNF4A
0.7424242424242424	LEFTY2	CDK4	CDKN2C
0.8125	DOCK6	PTEN	PIK3CA
0.8181818181818182	VAV1	PTEN	PIK3CA
0.8235294117647058	PIK3R1	PDGFRA	TRPM2
0.8235294117647058	BRAF	PIK3R1	EGFR	AGAP2
0.85	SENP5	RB1	CDK4	CDKN2C
0.85	JHDM1D	CDK4	RB1
0.8595	CHSY1	TP53	MDM2
0.945664739884393	MED12	TP53	HNF4A	FOXJ2
0.9827586206896551	FGD4	PTEN	PDGFRB
1.0	PCDH11Y	EGFR
1.0	IFT172	CREBBP
1.0	PRDM2	NF1
1.0	TMEM147	CREB1
1.0	RGS3	NF1
1.0	ZMIZ1	CREBBP
1.0	MAP3K7	MAP3K1
1.0	DDX17	NF1
1.0	IL4R	EGFR
1.0	EEF1A1	CREBBP
1.0	MTAP	NF1
1.0	EZR	EGFR
1.0	DDX5	EGR1
1.0	TARSL2	NF1
1.0	TGFA	EGFR
1.0	NEDD4L	HNF4A
1.0	ITPR3	PTEN
1.0	SEZ6L2	NF1
1.0	MAN2A2	EGR1
1.0	ST3GAL6	NF1
1.0	PLCG1	PIK3R1
1.0	TRPM4	TRPM2
1.0	CREBBP	CDK4
1.0	SSH1	AHR
1.0	REN	CREBBP
1.0	HPSE	MMP13
1.0	COL18A1	MMP13
1.0	SETD2	HNF4A
1.0	AP2A2	NF1
1.0	SLC22A18	HNF4A
1.0	KIF13A	NF1
1.0	TCF12	PTEN
1.0	MMP13	TP53
1.0	MCM6	HNF4A
1.0	C1S	NF1
1.0	ZNF3	HNF4A
1.0	WIF1	EGR1
1.0	S1PR1	PDGFRA
1.0	APBB1	NF1
1.0	NCDN	HNF4A
1.0	SEPT10	HNF4A
1.0	MAP3K1	PIK3CA
1.0	LUM	ST3GAL6
1.0	KRAS	TP53
1.0	TMEM229B	NF1