-0.43	-0.61	-0.85	-0.16	0.1	0.37	-0.34	-0.56	-0.3	-0.31	0.13	-0.28	0.31	-0.11	-0.02	-0.7	-0.7	0	0	0	0	0	0	0
-0.31	-0.32	-1	-0.13	0.09	0.65	-0.11	-0.56	-0.2	-0.15	0	-0.27	0.44	-0.31	-0.01	-0.55	-0.7	0	-0.12	0	0	0	0	0
-0.61	-1.1	-1.23	-0.18	0	0.73	-0.8	-0.83	-0.21	-0.24	0.15	-0.34	0.71	-0.41	-0.3	-1.24	-0.7	0	0	-0.55	0	0	0	0
-0.65	-0.49	-0.3	-0.11	-0.02	0.1	-0.13	-0.38	-0.11	-0.24	-0.4	0.15	0.1	-0.38	0.05	-2.79	-0.7	0	0	0	-0.74	0	0	0
-0.58	-0.54	-0.87	-0.13	-0.05	0.51	-0.31	-0.59	-0.17	-0.26	0.13	-0.38	0.34	-0.12	0.02	-0.54	-0.7	0	0	0	0	-0.23	0	0
-0.66	-0.93	-1.08	-0.17	1.51	0.4	-1.12	-0.38	-0.23	-0.19	0.05	-0.09	0.36	0.09	-0.34	-4.64	-0.7	0	0	0	0	0	-0.87	0
-1.09	-1.14	-1.09	-0.13	-1.72	0.45	-1.46	-0.38	-0.24	-0.23	0.15	-0.4	0.59	-0.13	-0.51	-2.5	-0.7	0	0	0	0	0	0	-0.97
-0.76	-0.46	-0.43	-0.05	-2.53	0.23	-0.39	-0.15	-0.12	-0.32	0.18	-0.65	0.02	-0.04	-0.05	-1.46	0	-0.99	0	0	0	0	0	0
-0.79	-1.01	-1.23	-0.12	-2.16	0.56	-0.85	-0.74	-0.04	-0.34	0.2	-0.52	0.44	-0.27	-0.39	-2.57	-0.7	-0.99	0	0	0	0	0	0
-0.82	-0.31	-0.72	-0.06	-2.7	0.38	-0.35	-0.1	-0.27	-0.14	0.15	-0.6	0.2	-0.3	-0.08	-1.55	0	-0.99	-0.12	0	0	0	0	0
-0.68	-0.59	-0.84	-0.11	-2.22	0.44	-0.49	-0.47	-0.23	-0.28	0.26	-0.6	0.26	-0.2	-0.19	-2.18	0	-0.99	0	-0.55	0	0	0	0
-0.85	-0.56	-0.05	-0.09	-2.31	-0.07	-0.33	-0.28	-0.13	-0.12	-0.5	-0.44	-0.02	-0.18	-0.45	-3.92	0	-0.99	0	0	-0.74	0	0	0
-0.72	-0.31	-0.45	-0.07	-2.78	0.25	-0.35	-0.17	-0.19	-0.31	0.04	-0.67	0.01	-0.02	-0.14	-1.43	0	-0.99	0	0	0	-0.23	0	0
-0.83	-0.44	-0.64	-0.11	-0.83	0.28	-0.91	0.09	-0.27	-0.28	0.01	-0.5	-0.09	0.12	-0.54	-4.27	0	-0.99	0	0	0	0	-0.87	0
-1.38	-0.88	-0.75	-0.14	-3.31	0.36	-1.16	-0.19	-0.14	-0.24	0.13	-0.61	0.11	0.07	-0.79	-3.25	0	-0.99	0	0	0	0	0	-0.97
-0.17	0.08	-0.14	0.02	-0.07	0.16	-0.15	0.15	0.05	0.1	-0.14	-0.17	0.12	-0.13	0.06	0.03	0	0	-0.12	0	0	0	0	0
-0.53	-0.26	0.26	-0.07	0.45	0.01	-0.21	0.23	0.01	0.12	-0.49	0.21	0.06	-0.32	-0.15	-1.89	0	0	-0.12	0	-0.74	0	0	0
-0.49	-0.04	-0.43	-0.02	1.35	0.12	-0.62	0.26	-0.01	0.11	-0.2	0.21	-0.04	-0.03	-0.21	-2.87	0	0	-0.12	0	0	0	-0.87	0
-0.33	-0.36	-0.63	-0.11	0.18	0.26	-0.15	-0.34	-0.15	-0.22	0.15	-0.31	0.32	-0.08	0.05	-0.26	0	0	0	-0.55	0	0	0	0
-0.28	-0.22	-0.88	-0.16	0.02	0.41	-0.28	-0.32	-0.12	0	0.02	-0.2	0.26	-0.29	0.09	-0.25	0	0	-0.12	-0.55	0	0	0	0
-0.49	-0.4	-0.12	-0.09	0.03	0.03	0	-0.4	0.02	-0.17	-0.47	0.03	0.13	-0.44	-0.09	-1.88	0	0	0	-0.55	-0.74	0	0	0
-0.46	-0.3	-0.61	-0.15	0.15	0.22	-0.21	-0.38	-0.1	-0.24	0.03	-0.34	0.18	-0.04	0.04	-0.15	0	0	0	-0.55	0	-0.23	0	0
-0.46	-0.55	-0.85	-0.16	1.62	0.21	-0.99	-0.14	-0.13	-0.08	-0.03	0	0.15	0.04	-0.46	-3.72	0	0	0	-0.55	0	0	-0.87	0
-0.55	-0.29	0.19	0	-0.16	-0.1	0.27	-0.24	0.05	0	-0.47	0.21	-0.09	-0.22	-0.05	-1.48	0	0	0	0	-0.74	0	0	0
-0.46	-0.42	0.29	-0.04	0.34	-0.08	-0.23	-0.02	0	0	-0.45	0.41	-0.1	-0.13	-0.24	-3.49	0	0	0	0	-0.74	0	-0.87	0
-0.37	-0.08	-0.14	-0.05	-0.08	0.05	-0.11	-0.07	-0.01	-0.07	-0.22	-0.31	0	0.07	0.07	0.03	0	0	0	0	0	-0.23	0	0
-0.5	0.11	-0.37	0	0.03	0.21	-0.03	0.02	-0.09	0.03	-0.25	-0.22	0.07	0.04	0.02	0.07	0	0	-0.12	0	0	-0.23	0	0
-0.62	-0.38	0.33	-0.05	-0.2	-0.09	-0.08	-0.31	0	-0.11	-0.45	-0.03	-0.04	-0.18	-0.02	-1.47	0	0	0	0	-0.74	-0.23	0	0
-0.73	-0.38	-0.22	-0.13	1.4	0.12	-1.01	0.16	-0.08	-0.03	-0.22	-0.03	-0.03	0.2	-0.42	-3.11	0	0	0	0	0	-0.23	-0.87	0
-0.49	-0.24	-0.26	-0.08	1.26	0.13	-0.84	0.12	-0.06	0.03	-0.17	0.2	-0.05	0.03	-0.42	-2.95	0	0	0	0	0	0	-0.87	0
-0.62	-0.19	-0.33	-0.11	-2.16	0.01	-0.16	0.25	-0.14	-0.16	-0.21	-0.45	0.08	0.24	-0.15	-1.17	0	0	0	0	0	0	0	-0.97
-0.78	-0.16	-0.47	-0.05	-2.36	0.27	-0.64	0.11	-0.14	0.08	-0.07	-0.48	0.09	0.04	-0.13	-1.3	0	0	-0.12	0	0	0	0	-0.97
-0.74	-0.73	-0.66	-0.16	-1.86	0.22	-1.09	-0.27	-0.19	-0.18	0.07	-0.34	0.41	-0.03	-0.45	-1.92	0	0	0	-0.55	0	0	0	-0.97
-1.15	-0.59	0.08	-0.12	-2.35	-0.02	-0.61	-0.24	-0.14	-0.17	-0.36	-0.21	0.05	-0.01	-0.31	-3.47	0	0	0	0	-0.74	0	0	-0.97
-0.73	-0.32	-0.25	-0.09	-2.1	0.1	-0.7	0.06	-0.12	-0.14	-0.06	-0.48	0.03	0.24	-0.23	-1.39	0	0	0	0	0	-0.23	0	-0.97
-1.25	-0.66	-0.44	-0.17	0.02	0.12	-1.54	0.11	-0.18	-0.06	-0.1	-0.18	0.15	0.1	-0.89	-5.06	0	0	0	0	0	0	-0.87	-0.97
