0	0	0	0	0	0	0	0	0	0	0	0	0	0	0	0	-0.91	0	0	0	0	0	0	0
0	0	0	0	0	0	0	0	0	0	0	0	0	0	0	0	-0.91	0	-0.26	0	0	0	0	0
0	0	0	0	0	0	0	0	0	0	0	0	0	0	0	0	-0.91	0	0	-1.36	0	0	0	0
0	0	0	0	0	0	0	0	0	0	0	0	0	0	0	0	-0.91	0	0	0	-1.06	0	0	0
0	0	0	0	0	0	0	0	0	0	0	0	0	0	0	0	-0.91	0	0	0	0	-1.52	0	0
0	0	0	0	0	0	0	0	0	0	0	0	0	0	0	0	-0.91	0	0	0	0	0	-0.98	0
0	0	0	0	0	0	0	0	0	0	0	0	0	0	0	0	-0.91	0	0	0	0	0	0	-1.27
0	0	0	0	0	0	0	0	0	0	0	0	0	0	0	0	0	-1.15	0	0	0	0	0	0
0	0	0	0	0	0	0	0	0	0	0	0	0	0	0	0	-0.91	-1.15	0	0	0	0	0	0
0	0	0	0	0	0	0	0	0	0	0	0	0	0	0	0	0	-1.15	-0.26	0	0	0	0	0
0	0	0	0	0	0	0	0	0	0	0	0	0	0	0	0	0	-1.15	0	-1.36	0	0	0	0
0	0	0	0	0	0	0	0	0	0	0	0	0	0	0	0	0	-1.15	0	0	-1.06	0	0	0
0	0	0	0	0	0	0	0	0	0	0	0	0	0	0	0	0	-1.15	0	0	0	-1.52	0	0
0	0	0	0	0	0	0	0	0	0	0	0	0	0	0	0	0	-1.15	0	0	0	0	-0.98	0
0	0	0	0	0	0	0	0	0	0	0	0	0	0	0	0	0	-1.15	0	0	0	0	0	-1.27
0	0	0	0	0	0	0	0	0	0	0	0	0	0	0	0	0	0	-0.26	0	0	0	0	0
0	0	0	0	0	0	0	0	0	0	0	0	0	0	0	0	0	0	-0.26	0	-1.06	0	0	0
0	0	0	0	0	0	0	0	0	0	0	0	0	0	0	0	0	0	-0.26	0	0	0	-0.98	0
0	0	0	0	0	0	0	0	0	0	0	0	0	0	0	0	0	0	0	-1.36	0	0	0	0
0	0	0	0	0	0	0	0	0	0	0	0	0	0	0	0	0	0	-0.26	-1.36	0	0	0	0
0	0	0	0	0	0	0	0	0	0	0	0	0	0	0	0	0	0	0	-1.36	-1.06	0	0	0
0	0	0	0	0	0	0	0	0	0	0	0	0	0	0	0	0	0	0	-1.36	0	-1.52	0	0
0	0	0	0	0	0	0	0	0	0	0	0	0	0	0	0	0	0	0	-1.36	0	0	-0.98	0
0	0	0	0	0	0	0	0	0	0	0	0	0	0	0	0	0	0	0	0	-1.06	0	0	0
0	0	0	0	0	0	0	0	0	0	0	0	0	0	0	0	0	0	0	0	-1.06	0	-0.98	0
0	0	0	0	0	0	0	0	0	0	0	0	0	0	0	0	0	0	0	0	0	-1.52	0	0
0	0	0	0	0	0	0	0	0	0	0	0	0	0	0	0	0	0	-0.26	0	0	-1.52	0	0
0	0	0	0	0	0	0	0	0	0	0	0	0	0	0	0	0	0	0	0	-1.06	-1.52	0	0
0	0	0	0	0	0	0	0	0	0	0	0	0	0	0	0	0	0	0	0	0	-1.52	-0.98	0
0	0	0	0	0	0	0	0	0	0	0	0	0	0	0	0	0	0	0	0	0	0	-0.98	0
0	0	0	0	0	0	0	0	0	0	0	0	0	0	0	0	0	0	0	0	0	0	0	-1.27
0	0	0	0	0	0	0	0	0	0	0	0	0	0	0	0	0	0	-0.26	0	0	0	0	-1.27
0	0	0	0	0	0	0	0	0	0	0	0	0	0	0	0	0	0	0	-1.36	0	0	0	-1.27
0	0	0	0	0	0	0	0	0	0	0	0	0	0	0	0	0	0	0	0	-1.06	0	0	-1.27
0	0	0	0	0	0	0	0	0	0	0	0	0	0	0	0	0	0	0	0	0	-1.52	0	-1.27
0	0	0	0	0	0	0	0	0	0	0	0	0	0	0	0	0	0	0	0	0	0	-0.98	-1.27
